<svg xmlns="http://www.w3.org/2000/svg" width="24" height="32" viewBox="0 0 24 32">
  <metadata><?xpacket begin="﻿" id="W5M0MpCehiHzreSzNTczkc9d"?>
<x:xmpmeta xmlns:x="adobe:ns:meta/" x:xmptk="Adobe XMP Core 5.6-c142 79.160924, 2017/07/13-01:06:39        ">
   <rdf:RDF xmlns:rdf="http://www.w3.org/1999/02/22-rdf-syntax-ns#">
      <rdf:Description rdf:about=""/>
   </rdf:RDF>
</x:xmpmeta>
                                                                                                    
                                                                                                    
                                                                                                    
                                                                                                    
                                                                                                    
                                                                                                    
                                                                                                    
                                                                                                    
                                                                                                    
                                                                                                    
                                                                                                    
                                                                                                    
                                                                                                    
                                                                                                    
                                                                                                    
                                                                                                    
                                                                                                    
                                                                                                    
                                                                                                    
                                                                                                    
                           
<?xpacket end="w"?></metadata>
<defs>
    <style>
      .cls-1 {
        fill: #fff;
        fill-rule: evenodd;
      }
    </style>
  </defs>
  <path id="Forma_1" data-name="Forma 1" class="cls-1" d="M1045.67,1851.37l-22.46-15.24a0.79,0.79,0,0,0-.8-0.05,0.764,0.764,0,0,0-.41.68v30.48a0.76,0.76,0,0,0,.41.67,0.8,0.8,0,0,0,.36.09,0.839,0.839,0,0,0,.44-0.13l22.46-15.25a0.738,0.738,0,0,0,.33-0.62A0.782,0.782,0,0,0,1045.67,1851.37Zm-22.12,14.42v-27.58l20.31,13.79Z" transform="translate(-1022 -1836)"/>
</svg>
