<?xml version="1.0" encoding="utf-8"?>
<!-- Generator: Adobe Illustrator 15.0.2, SVG Export Plug-In . SVG Version: 6.00 Build 0)  -->
<!DOCTYPE svg PUBLIC "-//W3C//DTD SVG 1.1//EN" "http://www.w3.org/Graphics/SVG/1.1/DTD/svg11.dtd">
<svg version="1.1" id="Слой_1" xmlns="http://www.w3.org/2000/svg" xmlns:xlink="http://www.w3.org/1999/xlink" x="0px" y="0px"
	 width="404px" height="244px" viewBox="0 0 404 244" enable-background="new 0 0 404 244" xml:space="preserve">
<g opacity="0.7">
	<g>
		<path fill="#e50046" d="M97.484,146.037H1v22.543h96.484V146.037z M313.883,64.656c-49.255,0-89.185,39.929-89.185,89.185
			c0,49.255,39.93,89.184,89.185,89.184s89.185-39.929,89.185-89.184C403.067,104.585,363.138,64.656,313.883,64.656z
			 M267.054,110.133c0.486-2.443,1.512-4.572,3.077-6.387c1.564-1.814,3.453-3.129,5.666-3.945c2.212-0.816,4.488-0.992,6.831-0.526
			c2.341,0.466,4.371,1.498,6.091,3.097c1.719,1.598,2.954,3.535,3.705,5.81c0.752,2.276,0.885,4.634,0.399,7.078
			c-0.491,2.469-1.51,4.592-3.055,6.37s-3.427,3.062-5.646,3.85s-4.488,0.952-6.805,0.491c-3.574-0.711-6.362-2.603-8.365-5.675
			C266.949,117.224,266.317,113.836,267.054,110.133z M255.183,186.431c-9.228-7.371,15.934-40.306,15.934-40.306
			s-7.509,1.022-13.424,4.806c-4.6,2.942-9.784,7.562-13.712,12.268c-0.406-3.063-0.637-6.183-0.637-9.357
			c0-10.722,2.403-20.878,6.683-29.977c1.874,4.582,4.818,8.386,8.863,11.392c4.307,3.199,9.398,5.384,15.277,6.553
			c5.902,1.174,11.441,1.105,16.62-0.208c5.178-1.313,9.573-3.919,13.187-7.818c3.612-3.9,6.039-8.966,7.278-15.199
			c1.215-6.104,0.859-11.616-1.063-16.537c-1.922-4.921-5.033-8.966-9.331-12.138c-2.037-1.502-4.243-2.77-6.607-3.817
			c6.234-1.804,12.816-2.79,19.632-2.79c19.09,0,36.396,7.595,49.096,19.914c-6.783,0.56-13.244,2.754-17.29,5.005
			c-8.777,4.884-31.718,26.044-47.362,42.624C282.681,167.425,264.41,193.803,255.183,186.431z M359.713,195.192
			c-0.491,2.469-1.51,4.592-3.057,6.369c-1.547,1.778-3.432,3.061-5.654,3.849c-2.222,0.788-4.493,0.95-6.813,0.489
			c-3.554-0.707-6.334-2.597-8.341-5.67c-2.006-3.072-2.641-6.46-1.903-10.164c0.485-2.442,1.506-4.572,3.061-6.389
			s3.438-3.133,5.654-3.948c2.215-0.815,4.495-0.991,6.84-0.524c2.345,0.466,4.384,1.501,6.118,3.103
			c1.734,1.601,2.973,3.538,3.713,5.812C360.071,190.391,360.199,192.749,359.713,195.192z M377.082,181.98
			c-1.921-4.921-5.023-8.965-9.307-12.133s-9.325-5.329-15.125-6.483c-5.801-1.153-11.287-1.086-16.456,0.201
			c-5.17,1.287-9.584,3.836-13.241,7.647c-3.658,3.811-6.094,8.768-7.308,14.871c-1.24,6.233-0.938,11.842,0.905,16.827
			s4.917,9.078,9.221,12.276c3.183,2.365,6.798,4.173,10.84,5.428c-7.134,2.428-14.773,3.765-22.729,3.765
			c-18.262,0-34.903-6.94-47.431-18.327c11.411-2.14,23.896-14.537,33.202-23.581c10.729-10.428,32.177-33.855,39.651-42.589
			c7.475-8.732,19.203-16.794,23.839-19.286c4-2.15,10.293-0.552,14.628,3.341c1.384,2.952,2.577,6.01,3.547,9.167
			c-0.59,4.307-3.248,9.029-6.296,12.843c-4.915,6.151-10.122,13.392-10.122,13.392s8.396-1.719,12.739-3.123
			c2.22-0.717,4.386-2.369,6.719-4.854c0.028,0.824,0.063,1.647,0.063,2.479c0,10.732-2.408,20.898-6.695,30.005
			C377.536,183.215,377.321,182.593,377.082,181.98z M172.618,118.76v-1.016c24.374-9.817,37.577-32.499,37.577-57.211
			c0-37.239-24.036-59.582-62.629-59.582c-30.129,0-53.826,14.218-63.305,38.931l15.494,9.171
			c10.141-14.296,19.713-28.499,46.457-28.499c27.421,0,42.363,13.572,42.363,42.348c0,27.759-24.005,45.071-41.348,45.071h-18.281
			v22.604h20.313c20.452,0,48.457,16.958,48.457,45.056c0,28.775-17.313,46.78-50.488,46.78c-22.682,0-36.379-7.156-52.566-29.546
			l-16.494,10.187c12.188,28.437,38.932,40.963,69.061,40.963c41.301,0,72.107-26.067,72.107-67.706
			C219.336,148.89,202.409,123.161,172.618,118.76z"/>
	</g>
</g>
</svg>
